{
  "name": "Blackboard-demo",
  "description": "Blackboard-demo",
  "version": "v0.0.1",
  "main": "目录",
  "input": "src",
  "output": "out",
  "schema": "schema",
  "system": {
    "name": "Blackboard",
    "url": "https://blackboard-cleword-explore.test.oc.forchange.cn/#/system"
  }
}
